﻿<svg class="ldi-j8bncu" width="200px"  height="200px"  xmlns="http://www.w3.org/2000/svg" xmlns:xlink="http://www.w3.org/1999/xlink" viewBox="0 0 100 100" preserveAspectRatio="xMidYMid" style="background: none;"><!--?xml version="1.0" encoding="utf-8"?--><!--Generator: Adobe Illustrator 21.0.0, SVG Export Plug-In . SVG Version: 6.00 Build 0)--><svg version="1.1" id="圖層_1" xmlns="http://www.w3.org/2000/svg" xmlns:xlink="http://www.w3.org/1999/xlink" x="0px" y="0px" viewBox="0 0 100 100" style="transform-origin: 50px 50px 0px;" xml:space="preserve"><g style="transform-origin: 50px 50px 0px; transform: scale(0.6);"><g style="transform-origin: 50px 50px 0px; animation-duration: 1s; animation-delay: -1s;" class=""><style type="text/css" class="ld ld-wander-px-h" style="transform-origin: 50px 50px 0px; animation-duration: 3.1s; animation-delay: -3.1s;">.st0{fill-rule:evenodd;clip-rule:evenodd;fill:#FFDC6C;} .st1{fill:none;stroke:#F8B26A;stroke-width:2.6883;stroke-linecap:round;stroke-miterlimit:10;} .st2{fill:#353035;} .st3{fill:#FFDC6C;} .st4{fill-rule:evenodd;clip-rule:evenodd;fill:#E15B64;} .st5{fill:#F8B26A;} .st6{fill-rule:evenodd;clip-rule:evenodd;fill:#A0C8D7;} .st7{fill-rule:evenodd;clip-rule:evenodd;fill:#B5B5B5;} .st8{fill:#A0C8D7;} .st9{fill-rule:evenodd;clip-rule:evenodd;fill:#F8B26A;} .st10{fill-rule:evenodd;clip-rule:evenodd;fill:#E0E0E0;stroke:#000000;stroke-width:3.8366;stroke-linecap:round;stroke-miterlimit:10;} .st11{fill-rule:evenodd;clip-rule:evenodd;fill:#FFDC6C;stroke:#F47E60;stroke-width:4;stroke-miterlimit:10;} .st12{fill-rule:evenodd;clip-rule:evenodd;fill:#E0E0E0;stroke:#000000;stroke-width:5;stroke-linecap:round;stroke-miterlimit:10;} .st13{fill:#B5B5B5;} .st14{fill-rule:evenodd;clip-rule:evenodd;fill:#E0E0E0;} .st15{fill-rule:evenodd;clip-rule:evenodd;fill:#E0E0E0;stroke:#000000;stroke-width:6.8207;stroke-linecap:round;stroke-miterlimit:10;} .st16{fill:#E0E0E0;} .st17{fill:#E0E0E0;stroke:#FFFFFF;stroke-width:3;stroke-miterlimit:10;} .st18{fill:#77A4BD;} .st19{fill-rule:evenodd;clip-rule:evenodd;fill:#E0E0E0;stroke:#000000;stroke-width:4;stroke-linecap:round;stroke-miterlimit:10;} .st20{fill:#F8B26A;stroke:#000000;stroke-width:3;stroke-miterlimit:10;} .st21{fill:none;stroke:#F8B26A;stroke-width:4.5884;stroke-linecap:round;stroke-miterlimit:10;} .st22{fill:#333333;} .st23{fill:#666666;} .st24{fill:#F47E60;} .st25{fill:#E15B64;} .st26{fill:#C33737;} .st27{fill:none;stroke:#77A4BD;stroke-width:4;stroke-linecap:round;stroke-miterlimit:10;} .st28{fill:none;stroke:#A0C8D7;stroke-width:4;stroke-linecap:round;stroke-miterlimit:10;} .st29{fill:none;stroke:#77A4BD;stroke-width:3.5;stroke-linecap:round;stroke-miterlimit:10;} .st30{fill:none;stroke:#A0C8D7;stroke-width:3.5;stroke-linecap:round;stroke-miterlimit:10;} .st31{fill-rule:evenodd;clip-rule:evenodd;fill:#F5E6C8;} .st32{fill:#E6E6E6;} .st33{fill:none;} .st34{fill:#849B87;} .st35{fill:none;stroke:#C33737;stroke-width:3;stroke-linecap:round;stroke-miterlimit:10;} .st36{fill:#F5E6C8;} .st37{fill:none;stroke:#F8B26A;stroke-width:1.8792;stroke-linecap:round;stroke-miterlimit:10;} .st38{fill:#998675;} .st39{fill:#736357;} .st40{fill-rule:evenodd;clip-rule:evenodd;fill:#80AAF3;} .st41{fill:none;stroke:#A0C8D7;stroke-width:3;stroke-linecap:round;stroke-miterlimit:10;} .st42{fill:none;stroke:#77A4BD;stroke-width:3;stroke-linecap:round;stroke-miterlimit:10;} .st43{fill:none;stroke:#F5E169;stroke-width:4.588;stroke-linecap:round;stroke-miterlimit:10;} .st44{fill:none;stroke:#F8B26A;stroke-width:4.588;stroke-linecap:round;stroke-miterlimit:10;} .st45{fill:none;stroke:#F47E60;stroke-width:4.588;stroke-linecap:round;stroke-miterlimit:10;} .st46{fill:none;stroke:#E15B64;stroke-width:4.588;stroke-linecap:round;stroke-miterlimit:10;} .st47{fill:none;stroke:#E15B64;stroke-width:8;stroke-miterlimit:10;} .st48{fill:none;stroke:#F8B26A;stroke-width:8;stroke-miterlimit:10;} .st49{fill:none;stroke:#ABBD81;stroke-width:8;stroke-miterlimit:10;} .st50{fill:none;stroke:#E15B64;stroke-width:4;stroke-miterlimit:10;} .st51{fill:none;stroke:#F8B26A;stroke-width:4;stroke-miterlimit:10;} .st52{fill:none;stroke:#F5E6C8;stroke-width:4;stroke-miterlimit:10;} .st53{fill:none;stroke:#ABBD81;stroke-width:4;stroke-miterlimit:10;} .st54{fill:none;stroke:#A0C8D7;stroke-width:4;stroke-miterlimit:10;} .st55{fill:none;stroke:#B295E3;stroke-width:4;stroke-miterlimit:10;}</style><g class="ld ld-wander-px-h" style="transform-origin: 50px 50px 0px; animation-duration: 3.1s; animation-delay: -2.84167s;"><circle class="st0" cx="24.1" cy="40" r="15.5" fill="#fff4d1" style="fill: rgb(255, 244, 209);"></circle></g><g class="ld ld-wander-px-h" style="transform-origin: 50px 50px 0px; animation-duration: 3.1s; animation-delay: -2.58333s;"><path class="st13" d="M92.5,61.9c0,4.5-3.9,8.2-8.6,8.2H62.9c0.5-1.4,0.9-2.9,0.9-4.5c0-5.1-3.1-9.6-7.7-11.4 c0.1-0.8,0.2-1.7,0.2-2.5c0-1.9-0.3-3.8-1-5.5c1.4-1.1,3.2-1.8,5.2-1.8c0.9,0,1.7,0.1,2.4,0.4c2.1-3.7,6.1-6.2,10.8-6.2 c6.7,0,12.2,5.2,12.2,11.6c0,1.2-0.2,2.4-0.6,3.5C89.4,54.5,92.5,57.9,92.5,61.9z M53.2,56c0.4-1.3,0.6-2.7,0.6-4.2 c0-1.2-0.1-2.3-0.4-3.4c-1.5-6-7-10.5-13.5-10.5c-5.3,0-9.9,3-12.3,7.4c-0.9-0.3-1.8-0.4-2.8-0.4c-5.1,0-9.3,4.1-9.3,9.3 c0,0.6,0.1,1.3,0.2,1.9c-4.7,0.7-8.3,4.8-8.3,9.7c0,5.4,4.4,9.8,9.8,9.8h34.2c3.8,0,7.1-2.2,8.8-5.4c0.7-1.3,1.1-2.9,1.1-4.5 C61.4,60.8,57.8,56.8,53.2,56z" fill="#ffffff" style="fill: rgb(0, 156, 231);"></path></g><metadata xmlns:d="https://loading.io/stock/" class="ld ld-wander-px-h" style="transform-origin: 50px 50px 0px; animation-duration: 3.1s; animation-delay: -2.325s;">
<d:name class="ld ld-wander-px-h" style="transform-origin: 50px 50px 0px; animation-duration: 3.1s; animation-delay: -2.06667s;">sunny</d:name>
<d:tags class="ld ld-wander-px-h" style="transform-origin: 50px 50px 0px; animation-duration: 3.1s; animation-delay: -1.80833s;">solar,sky,weather,cloud,mist,day,light,sunny,weather</d:tags>
<d:license class="ld ld-wander-px-h" style="transform-origin: 50px 50px 0px; animation-duration: 3.1s; animation-delay: -1.55s;">rf</d:license>
<d:slug class="ld ld-wander-px-h" style="transform-origin: 50px 50px 0px; animation-duration: 3.1s; animation-delay: -1.29167s;">j8bncu</d:slug>
</metadata></g></g><style type="text/css" class="ld ld-wander-px-h" style="transform-origin: 50px 50px 0px; animation-duration: 3.1s; animation-delay: -1.03333s;">path,ellipse,circle,rect,polygon,polyline,line { stroke-width: 0; }@keyframes ld-wander-px-h {
  0% {
    -webkit-transform: translate(-35px, 0);
    transform: translate(-35px, 0);
  }
  50% {
    -webkit-transform: translate(35px, 0);
    transform: translate(35px, 0);
  }
  100% {
    -webkit-transform: translate(-35px, 0);
    transform: translate(-35px, 0);
  }
}
@-webkit-keyframes ld-wander-px-h {
  0% {
    -webkit-transform: translate(-35px, 0);
    transform: translate(-35px, 0);
  }
  50% {
    -webkit-transform: translate(35px, 0);
    transform: translate(35px, 0);
  }
  100% {
    -webkit-transform: translate(-35px, 0);
    transform: translate(-35px, 0);
  }
}
.ld.ld-wander-px-h {
  -webkit-animation: ld-wander-px-h 1s infinite ease-out;
  animation: ld-wander-px-h 1s infinite ease-out;
}
</style></svg></svg>